-----BEGIN PGP SIGNATURE-----
Version: GnuPG v1

iQEcBAABAgAGBQJX36A5AAoJEBMpVlfmBCW6oxkH/1+VQuHOviC8xaTKc4nsRDS8
5KrsTiyV2kB/idJEuEB+g8ezk9A86oLwdJTF40J1TfcIeI/nmNtWX/U0H0N9TadD
ZZjo8G6RvLdXIvcCVjEnP9RedxMb50YIdOs6wUgDcgCYOLAvegw4DoS9NE5R0p+j
JKO+GlrTTyycPJyDcGbQzAxT5LVARlK2kBCbpBABOBoVOxPvBU9Gch/92/jsNLNP
TZRW9LaboWngEIVrkgThzPoUn7RvdpdoThXytwlVMtXaenk05FyvlLcepFXP+v0B
ydKDX7prA3D/0f4XdT0DvtanqXITEu90sCvEwu4eClxAv1Cw9o3AK1bJydn88t0=
=S+XJ
-----END PGP SIGNATURE-----
