-----BEGIN PGP SIGNATURE-----
Version: GnuPG v1

iQEcBAABAgAGBQJX36A5AAoJEBMpVlfmBCW68SoIAI/K3M32lpdro3uFzJlil4RN
HLn7B5+hK6ajj4ZozfMrSG6WcjLrwLVb6uWoq+4GeLVCF0m3novkrfa4KQw0199/
8HufS8rzwNODYwxmWVD56rlELB1zbIz1ewuXy19V2tkrvXfZOx2v+ihBleR/sXFm
IqJdJTNNdrtTstZbDmcooSJ3Qlur9JpXZE4mmnLL7WOCZy24R4PixXK2FbyifiGW
ywlKAgkcq0CqtyLF+F16S+opMdX1nhW9kpKe/T9hhujvzcTpVs+uMQ5rWwYiDLNQ
b5FDQAwyZQY2NMzGxFlNi8OLtfJQqCVtZ5YVy+5dYrQiJxS6AgFQ3fSgFstGDpA=
=TFUF
-----END PGP SIGNATURE-----
